2021 Version of the Multi-level Lockdown Model
…
data <- as_tibble(data)
data["LCeq_LAeq"] <- data$LCeq - data$LAeq
data <- data[c("GroupID", "LocationID", "Lockdown", "Pleasant", "Eventful", "Human", "Traffic", "Natural", features)]

print("Full data table has dimensions: ")

## [1] "Full data table has dimensions: "

print(dim(data))

## [1] 1715   18

print(data)

## # A tibble: 1,715 x 18
##    GroupID LocationID Lockdown Pleasant Eventful Human Traffic Natural   N_5
##    <chr>   <chr>         <dbl>    <dbl>    <dbl> <dbl>   <dbl>   <dbl> <dbl>
##  1 CT101   CamdenTown        1  -0.220     0.427     3       4       2  31.1
##  2 CT101   CamdenTown        1   0         0.25      2       3       1  31.1
##  3 CT101   CamdenTown        1  -0.470     0.177     4       4       2  31.1
##  4 CT102   CamdenTown        1   0.104    -0.75      4       3       1  34.5
##  5 CT103   CamdenTown        1   0.25      0.75      4       4       1  24.7
##  6 CT104   CamdenTown        1   0.0732    0.677     2       4       1  38.7
##  7 CT107   CamdenTown        1   0.0732    0.366     3       4       2  29.3
##  8 CT108   CamdenTown        1  -0.146     0.146     2       3       1  34.3
##  9 CT109   CamdenTown        1   0.104     1         5       4       1  30.1
## 10 CT109   CamdenTown        1  -0.116     0.323     3       3       1  30.1
## # ... with 1,705 more rows, and 9 more variables: S <dbl>, R <dbl>, I <dbl>,
## #   FS <dbl>, LAeq <dbl>, LAeq_10_LAeq_90 <dbl>, LCeq_LAeq <dbl>, SIL_50 <dbl>,
## #   PeakSpectralCentroid <dbl>
…
